<?xml version="1.0" encoding="UTF-8" standalone="no"?>
<!-- Created with Inkscape (http://www.inkscape.org/) -->

<svg
   xmlns:dc="http://purl.org/dc/elements/1.1/"
   xmlns:cc="http://creativecommons.org/ns#"
   xmlns:rdf="http://www.w3.org/1999/02/22-rdf-syntax-ns#"
   xmlns:svg="http://www.w3.org/2000/svg"
   xmlns="http://www.w3.org/2000/svg"
   xmlns:sodipodi="http://sodipodi.sourceforge.net/DTD/sodipodi-0.dtd"
   xmlns:inkscape="http://www.inkscape.org/namespaces/inkscape"
   sodipodi:docname="vector.svg"
   height="296"
   width="296"
   inkscape:version="0.48.5 r10040"
   version="1.1"
   id="svg2"
   inkscape:export-filename="/home/salvatore/WebstormProjects/bookleoid/icons/res/mipmap-xxxhdpi/ic_launcher.png"
   inkscape:export-xdpi="58.37838"
   inkscape:export-ydpi="58.37838">
  <sodipodi:namedview
     pagecolor="#ffffff"
     bordercolor="#666666"
     borderopacity="1"
     objecttolerance="10"
     gridtolerance="10"
     guidetolerance="10"
     inkscape:pageopacity="0"
     inkscape:pageshadow="2"
     inkscape:window-width="1024"
     inkscape:window-height="712"
     id="namedview4"
     showgrid="false"
     inkscape:zoom="1.7383042"
     inkscape:cx="201.35204"
     inkscape:cy="142.08699"
     inkscape:window-x="0"
     inkscape:window-y="27"
     inkscape:window-maximized="1"
     inkscape:current-layer="svg2"
     fit-margin-top="20"
     fit-margin-left="20"
     fit-margin-right="20"
     fit-margin-bottom="20"
     showguides="false">
    <sodipodi:guide
       id="guide2985"
       orientation="0,256"
       position="20,20" />
    <sodipodi:guide
       id="guide2987"
       orientation="-256,0"
       position="276,20" />
    <sodipodi:guide
       id="guide2989"
       orientation="0,-256"
       position="276,276" />
    <sodipodi:guide
       id="guide2991"
       orientation="256,0"
       position="20,276" />
  </sodipodi:namedview>
  <metadata
     id="metadata8">
    <rdf:RDF>
      <cc:Work
         rdf:about="">
        <dc:format>image/svg+xml</dc:format>
        <dc:type
           rdf:resource="http://purl.org/dc/dcmitype/StillImage" />
        <dc:title></dc:title>
      </cc:Work>
    </rdf:RDF>
  </metadata>
  <defs
     id="defs6">
    <clipPath
       clipPathUnits="userSpaceOnUse"
       id="clipPath3781">
      <rect
         style="fill:#ffffff;stroke:none"
         id="rect3783"
         width="256"
         height="256"
         x="0"
         y="0"
         rx="17"
         ry="17" />
    </clipPath>
    <clipPath
       id="clipPath4709"
       clipPathUnits="userSpaceOnUse">
      <rect
         ry="17"
         style="fill:#ffffff;stroke:none"
         id="rect4711"
         width="256"
         height="256"
         x="-1"
         y="-0.99991"
         rx="17" />
    </clipPath>
    <clipPath
       clipPathUnits="userSpaceOnUse"
       id="clipPath4955">
      <rect
         style="fill:#ffffff;stroke:none"
         id="rect4957"
         width="256"
         height="256"
         x="-1"
         y="-1.0002162"
         rx="17"
         inkscape:export-xdpi="90"
         inkscape:export-ydpi="90"
         ry="17" />
    </clipPath>
  </defs>
  <rect
     ry="17"
     style="fill:#666666;stroke:none"
     id="rect4959"
     width="256"
     height="256"
     x="24"
     y="24"
     rx="17"
     inkscape:export-xdpi="90"
     inkscape:export-ydpi="90" />
  <rect
     inkscape:export-ydpi="90"
     inkscape:export-xdpi="90"
     rx="17"
     y="20"
     x="20"
     height="256"
     width="256"
     id="rect2993"
     style="fill:#ffffff;stroke:#000000;stroke-opacity:1;stroke-width:0.1;stroke-miterlimit:4;stroke-dasharray:none"
     ry="17" />
  <g
     id="g4870"
     transform="translate(21,21.000216)"
     clip-path="url(#clipPath4955)"
     style="fill:#ebebeb;fill-opacity:1">
    <g
       id="g4872"
       style="fill:#ebebeb;fill-opacity:1;stroke:none">
      <path
         id="path4874"
         d="M 102.1875,15.15625 77.40625,29.1875 148.11693,99.898178 172.89818,85.866928 z"
         inkscape:connector-curvature="0"
         style="fill:#ebebeb;fill-opacity:1" />
      <path
         id="path4876"
         d="m 77.40625,29.1875 -24.125,-11.46875 70.71068,70.710678 24.125,11.46875 z"
         inkscape:connector-curvature="0"
         style="fill:#ebebeb;fill-opacity:1" />
      <path
         id="path4878"
         d="m 53.28125,17.71875 3.34375,37.625 70.71068,70.71068 -3.34375,-37.625002 z"
         inkscape:connector-curvature="0"
         style="fill:#ebebeb;fill-opacity:1" />
      <path
         id="path4880"
         d="m 56.625,55.34375 2.375,-0.25 70.71068,70.71068 -2.375,0.25 z"
         inkscape:connector-curvature="0"
         style="fill:#ebebeb;fill-opacity:1" />
      <path
         id="path4882"
         d="m 59,55.09375 c -4.479924,0.819674 -9.056193,1.754113 -13.75,2.8125 l 70.71068,70.71068 c 4.69381,-1.05839 9.27007,-1.99283 13.75,-2.8125 z"
         inkscape:connector-curvature="0"
         style="fill:#ebebeb;fill-opacity:1" />
      <path
         id="path4884"
         d="m 45.25,57.90625 0.65625,176.0625 70.71068,70.71068 -0.65625,-176.0625 z"
         inkscape:connector-curvature="0"
         style="fill:#ebebeb;fill-opacity:1" />
      <path
         id="path4886"
         d="m 45.90625,233.96875 c 122.11577,28.10839 170.013,-36.87766 134.53842,-72.35225 l 70.71067,70.71068 c 35.47459,35.47459 -12.42264,100.46064 -134.53841,72.35225 z"
         inkscape:connector-curvature="0"
         style="fill:#ebebeb;fill-opacity:1" />
      <path
         id="path4888"
         d="M 180.44467,161.6165 C 170.10748,151.27931 152.691,143.44801 127.96875,141.15625 l 70.71068,70.71068 c 24.72225,2.29176 42.13872,10.12306 52.47591,20.46025 z"
         inkscape:connector-curvature="0"
         style="fill:#ebebeb;fill-opacity:1" />
      <path
         id="path4890"
         d="m 127.96875,141.15625 c 61.07812,-10.0864 77.26833,-44.583015 53.85101,-68.000338 l 70.71067,70.710678 c 23.41733,23.41732 7.22712,57.91394 -53.851,68.00034 z"
         inkscape:connector-curvature="0"
         style="fill:#ebebeb;fill-opacity:1" />
      <path
         id="path4892"
         d="M 181.81976,73.155912 C 168.01786,59.354015 140.45715,49.400826 100.21875,50.5625 l 70.71068,70.71068 c 40.2384,-1.16168 67.79911,8.79151 81.601,22.59341 z"
         inkscape:connector-curvature="0"
         style="fill:#ebebeb;fill-opacity:1" />
      <path
         id="path4894"
         d="m 100.21875,50.5625 1.96875,-35.40625 70.71068,70.710678 -1.96875,35.406252 z"
         inkscape:connector-curvature="0"
         style="fill:#ebebeb;fill-opacity:1" />
      <path
         id="path4896"
         d="M 210.09375,52.78125 169.21875,56 l 70.71068,70.71068 40.875,-3.21875 z"
         inkscape:connector-curvature="0"
         style="fill:#ebebeb;fill-opacity:1" />
      <path
         id="path4898"
         d="m 169.21875,56 c 9.77263,2.351275 18.27846,7.050989 24.50576,13.278297 l 70.71068,70.710683 c -6.2273,-6.22731 -14.73313,-10.92703 -24.50576,-13.2783 z"
         inkscape:connector-curvature="0"
         style="fill:#ebebeb;fill-opacity:1" />
      <path
         id="path4900"
         d="m 193.72451,69.278297 c 17.77302,17.773014 16.98618,47.989143 -25.88076,71.565453 l 70.71068,70.71068 c 42.86694,-23.57631 43.65378,-53.79244 25.88076,-71.56545 z"
         inkscape:connector-curvature="0"
         style="fill:#ebebeb;fill-opacity:1" />
      <path
         id="path4902"
         d="m 167.84375,140.84375 c 9.10359,4.28795 16.31981,9.3463 21.83384,14.86032 l 70.71068,70.71068 c -5.51403,-5.51402 -12.73025,-10.57238 -21.83384,-14.86032 z"
         inkscape:connector-curvature="0"
         style="fill:#ebebeb;fill-opacity:1" />
      <path
         id="path4904"
         d="m 189.67759,155.70407 c 26.65742,26.65743 13.53066,63.96479 -18.45884,76.35843 l 70.71068,70.71068 c 31.9895,-12.39365 45.11626,-49.701 18.45884,-76.35843 z"
         inkscape:connector-curvature="0"
         style="fill:#ebebeb;fill-opacity:1" />
      <path
         id="path4906"
         d="m 171.21875,232.0625 39.53125,7.03125 70.71068,70.71068 -39.53125,-7.03125 z"
         inkscape:connector-curvature="0"
         style="fill:#ebebeb;fill-opacity:1" />
      <path
         id="path4908"
         d="m 210.75,239.09375 -0.65625,-186.3125 70.71068,70.71068 0.65625,186.3125 z"
         inkscape:connector-curvature="0"
         style="fill:#ebebeb;fill-opacity:1" />
    </g>
    <path
       id="path4843"
       d="M 102.1875,15.15625 77.40625,29.1875 53.28125,17.71875 56.625,55.34375 59,55.09375 c -4.479924,0.819674 -9.056193,1.754113 -13.75,2.8125 l 0.65625,176.0625 c 157.69995,36.29909 191.62516,-82.65601 82.0625,-92.8125 97.07686,-16.03121 80.75986,-93.726406 -27.75,-90.59375 L 102.1875,15.15625 z M 210.09375,52.78125 169.21875,56 c 37.66415,9.061917 56.51166,53.00677 -1.375,84.84375 53.11468,25.01792 41.98145,76.26151 3.375,91.21875 l 39.53125,7.03125 -0.65625,-186.3125 z"
       style="fill:#ebebeb;fill-opacity:1;stroke:none"
       inkscape:connector-curvature="0" />
  </g>
  <g
     transform="matrix(1.1646541,0,0,1.1089688,59.416747,-17.50809)"
     id="g3808">
    <path
       style="fill:#ffdb00;fill-opacity:1;stroke:none"
       d="m 14.77965,83.732277 -2.87636,-33.94112 20.70983,10.35492 21.28512,-12.65601 -1.72582,32.2153"
       id="path2993"
       inkscape:connector-curvature="0"
       sodipodi:nodetypes="ccccc" />
    <path
       style="fill:#35c2d5;fill-opacity:1;stroke:none"
       d="m 5,86.033377 c 133.99373,-31.73082 166.90455,58.448323 71.04626,75.073173 94.07314,9.1585 64.93399,116.43455 -70.47098,83.70226 z"
       id="path2987"
       inkscape:connector-curvature="0"
       sodipodi:nodetypes="cccc" />
    <path
       style="fill:#ff3446;fill-opacity:1;stroke:none"
       d="m 111.45249,84.307547 35.09166,-2.87636 0.57527,167.979803 -33.94113,-6.328 c 33.14843,-13.48752 42.70196,-59.70844 -2.90358,-82.26807 49.70288,-28.70863 33.51713,-68.335893 1.17778,-76.507373 z"
       id="path2989"
       inkscape:connector-curvature="0"
       sodipodi:nodetypes="cccccc" />
  </g>
</svg>
